hw4-Deep-Bhalodia
…
## See spec(...) for full column specifications.

echo = FALSE

crdc

## # A tibble: 96,360 x 1,836
##    LEA_STATE LEA_STATE_NAME LEAID LEA_NAME SCHID SCH_NAME COMBOKEY JJ   
##    <chr>     <chr>          <chr> <chr>    <dbl> <chr>    <chr>    <chr>
##  1 AL        ALABAMA        1000 Alabama  1705 Wallace 1000020 Yes  
##  2 AL        ALABAMA        1000 Alabama  1706 McNeel  1000020 Yes  
##  3 AL        ALABAMA        1000 Alabama  1876 Alabama 1000020 No   
##  4 AL        ALABAMA        1000 Alabama 99995 AUTAUGA 1000029 Yes  
##  5 AL        ALABAMA        1000 Albertv   870 Albertv 1000050 No   
##  6 AL        ALABAMA        1000 Albertv   871 Albertv 1000050 No   
##  7 AL        ALABAMA        1000 Albertv   879 Evans E 1000050 No   
##  8 AL        ALABAMA        1000 Albertv   889 Albertv 1000050 No   
##  9 AL        ALABAMA        1000 Albertv  1616 Big Spr 1000050 No   
## 10 AL        ALABAMA        1000 Albertv  2150 Albertv 1000050 No   
## #  with 96,350 more rows, and 1,828 more variables: SCH_GRADE_PS <chr>,
## #   SCH_GRADE_KG <chr>, SCH_GRADE_G01 <chr>, SCH_GRADE_G02 <chr>,
## #   SCH_GRADE_G03 <chr>, SCH_GRADE_G04 <chr>, SCH_GRADE_G05 <chr>,
## #   SCH_GRADE_G06 <chr>, SCH_GRADE_G07 <chr>, SCH_GRADE_G08 <chr>,
## #   SCH_GRADE_G09 <chr>, SCH_GRADE_G10 <chr>, SCH_GRADE_G11 <chr>,
## #   SCH_GRADE_G12 <chr>, SCH_GRADE_UG <chr>, SCH_UGDETAIL_ES <chr>,
## #   SCH_UGDETAIL_MS <chr>, SCH_UGDETAIL_HS <chr>, SCH_STATUS_SPED <chr>,
## #   SCH_STATUS_MAGNET <chr>, SCH_STATUS_CHARTER <chr>,
## #   SCH_STATUS_ALT <chr>, SCH_MAGNETDETAIL <chr>, SCH_ALTFOCUS <chr>,
…
