hw2-Deep-Bhalodia
…
water_raw<-read_csv("NavajoWaterExport.csv")

water <- transmute(water_raw,
  section=`Which EPA Section is This From?`,
  name=`Name of Water Source`,
  date=`Date of Water Sampling`,
  long=Longitude,
  lat=Latitude,
  risk=`US EPA Risk Rating`,
  radium228=`Amount of Radium228`)

water

## # A tibble: 225 x 7
##    section  name               date   long      lat       risk    radium228
##    <chr>    <chr>              <chr>  <chr>     <chr>     <chr>       <dbl>
##  1 Section Gold Spring        1/19/ 111 4 28 35 46 4. Some R     0.5  
##  2 Section Tank 3K-331        7/27/ 111 24 2 35 46 8. Some R     1.54 
##  3 Section Lower Greasewood  4/14/ 109 51 1 35 31 42 Less R     0.591
##  4 Section Tank 8T-549        10/9/ 110 12 4 36 39 41 Some R     0.183
##  5 Section Cedar Spring       7/13/ 110 21 5 35 27 4. Less R     0.439
##  6 Section Tank 8AI-1         9/21/ 110 18 3 37 1 17. Less R     0.892
##  7 Section Coyote Spring      7/8/98 110 27 5 35 20 37 Some R     0.565
##  8 Section 9T-523             3/18/ 109 10 5 36 55 24 Less R     0.065
##  9 Section Chimney Butte Spr 7/14/ 110 25 2 35 19 17 Some R     0.353
## 10 Section Nazlini Chapter H 11/17 109 26 4 35 53 56 Some R     0.975
## #  with 215 more rows
…
## See spec(...) for full column specifications.

crdc

## # A tibble: 96,360 x 1,836
##    LEA_STATE LEA_STATE_NAME LEAID LEA_NAME SCHID SCH_NAME COMBOKEY JJ   
##    <chr>     <chr>          <chr> <chr>    <dbl> <chr>    <chr>    <chr>
##  1 AL        ALABAMA        1000 Alabama  1705 Wallace 1000020 Yes  
##  2 AL        ALABAMA        1000 Alabama  1706 McNeel  1000020 Yes  
##  3 AL        ALABAMA        1000 Alabama  1876 Alabama 1000020 No   
##  4 AL        ALABAMA        1000 Alabama 99995 AUTAUGA 1000029 Yes  
##  5 AL        ALABAMA        1000 Albertv   870 Albertv 1000050 No   
##  6 AL        ALABAMA        1000 Albertv   871 Albertv 1000050 No   
##  7 AL        ALABAMA        1000 Albertv   879 Evans E 1000050 No   
##  8 AL        ALABAMA        1000 Albertv   889 Albertv 1000050 No   
##  9 AL        ALABAMA        1000 Albertv  1616 Big Spr 1000050 No   
## 10 AL        ALABAMA        1000 Albertv  2150 Albertv 1000050 No   
## #  with 96,350 more rows, and 1,828 more variables: SCH_GRADE_PS <chr>,
## #   SCH_GRADE_KG <chr>, SCH_GRADE_G01 <chr>, SCH_GRADE_G02 <chr>,
## #   SCH_GRADE_G03 <chr>, SCH_GRADE_G04 <chr>, SCH_GRADE_G05 <chr>,
## #   SCH_GRADE_G06 <chr>, SCH_GRADE_G07 <chr>, SCH_GRADE_G08 <chr>,
## #   SCH_GRADE_G09 <chr>, SCH_GRADE_G10 <chr>, SCH_GRADE_G11 <chr>,
## #   SCH_GRADE_G12 <chr>, SCH_GRADE_UG <chr>, SCH_UGDETAIL_ES <chr>,
## #   SCH_UGDETAIL_MS <chr>, SCH_UGDETAIL_HS <chr>, SCH_STATUS_SPED <chr>,
## #   SCH_STATUS_MAGNET <chr>, SCH_STATUS_CHARTER <chr>,
## #   SCH_STATUS_ALT <chr>, SCH_MAGNETDETAIL <chr>, SCH_ALTFOCUS <chr>,
…
