hw1-Deep-Bhalodia
…
cols <- unlist(cols) # unlist the list into a character vector
cols <- unique(cols) # unique() removes repeated columns; optional
data[,cols,drop=FALSE]
}

selectCols(mpg, "model", "year")

## # A tibble: 234 x 2
##    model       year
##    <chr>      <int>
##  1 a4          1999
##  2 a4          1999
##  3 a4          2008
##  4 a4          2008
##  5 a4          1999
##  6 a4          1999
##  7 a4          2008
##  8 a4 quattro  1999
##  9 a4 quattro  1999
## 10 a4 quattro  2008
## #  with 224 more rows

selectCols(mpg, 1, 2:3)

## # A tibble: 234 x 3
##    manufacturer model      displ
##    <chr>        <chr>      <dbl>
##  1 audi         a4           1.8
##  2 audi         a4           1.8
##  3 audi         a4           2  
##  4 audi         a4           2  
##  5 audi         a4           2.8
##  6 audi         a4           2.8
##  7 audi         a4           3.1
##  8 audi         a4 quattro   1.8
##  9 audi         a4 quattro   1.8
## 10 audi         a4 quattro   2  
## #  with 224 more rows

selectCols(mpg, 2, "cty", "hwy")

## # A tibble: 234 x 3
##    model        cty   hwy
##    <chr>      <int> <int>
##  1 a4            18    29
##  2 a4            21    29
##  3 a4            20    31
##  4 a4            21    30
##  5 a4            16    26
##  6 a4            18    26
##  7 a4            18    27
##  8 a4 quattro    18    26
##  9 a4 quattro    16    25
## 10 a4 quattro    20    28
## #  with 224 more rows
…
